Introduction to Spatial Data Analysis and Mapping in R
…
chi2 %>% 
  st_join(groceries, .) %>% 
  group_by(community) %>% 
  tally() %>%
  arrange(desc(n))
```

```
## Simple feature collection with 55 features and 2 fields
## geometry type:  GEOMETRY
## dimension:      XY
## bbox:           xmin: 1124188 ymin: 1826196 xmax: 1201803 ymax: 1950151
## epsg (SRID):    NA
## proj4string:    +proj=tmerc +lat_0=36.66666666666666 +lon_0=-88.33333333333333 +k=0.9999749999999999 +x_0=300000.0000000001 +y_0=0 +ellps=GRS80 +units=us-ft +no_defs
## # A tibble: 55 x 3
##    community           n                       geometry
##    <fct>           <int> <sf_geometry [US_survey_foot]>
##  1 NEAR NORTH SIDE    12 MULTIPOINT (1169391 1910436...
##  2 LOGAN SQUARE        8 MULTIPOINT (1150226 1915696...
##  3 LAKE VIEW           7 MULTIPOINT (1165054 1922112...
##  4 LOWER WEST SIDE     7 MULTIPOINT (1160692 1889319...
##  5 NEAR WEST SIDE      7 MULTIPOINT (1165889 1894599...
##  6 BELMONT CRAGIN      6 MULTIPOINT (1132379 1917230...
##  7 PORTAGE PARK        5 MULTIPOINT (1138161 1931033...
##  8 SOUTH LAWNDALE      5 MULTIPOINT (1150164 1886133...
##  9 MCKINLEY PARK       4 MULTIPOINT (1161716 1880466...
## 10 MORGAN PARK         4 MULTIPOINT (1162303 1832900...
## # ... with 45 more rows
```
…
